INDEX VERSION 1.126+C:\Users\Stockweeeeeiizeeee\workspace\.metadata\.plugins\org.eclipse.jdt.core
1922508118.index
1865224378.index
4059251104.index
2775261923.index
168259219.index
333921529.index
744925483.index
2302996691.index
848856923.index
