<?xml version="1.0" encoding="UTF-8"?>
<session version="1.0">
<refactoring comment="Rename type &apos;com.wherethisgo.simplesudokusolver.PlayPuzzles&apos; to &apos;PlayGame&apos;&#x0D;&#x0A;- Original project: &apos;SimpleSudokuSolver&apos;&#x0D;&#x0A;- Original element: &apos;com.wherethisgo.simplesudokusolver.PlayPuzzles&apos;&#x0D;&#x0A;- Renamed element: &apos;com.wherethisgo.simplesudokusolver.PlayGame&apos;&#x0D;&#x0A;- Update references to refactored element&#x0D;&#x0A;- Update textual occurrences in comments and strings" description="Rename type &apos;PlayPuzzles&apos;" flags="589830" id="org.eclipse.jdt.ui.rename.type" input="/src&lt;com.wherethisgo.simplesudokusolver{PlayPuzzles.java[PlayPuzzles" matchStrategy="1" name="PlayGame" qualified="false" references="true" similarDeclarations="false" stamp="1392084058086" textual="false" version="1.0"/>
</session>